simulation/qsim/mips.msim.vcd
$comment
	File created using the following command:
		vcd file mips.msim.vcd -direction
$end
$date
	Thu Nov 28 13:43:57 2019
$end
$version
	ModelSim Version 10.5b
$end
$timescale
	1ps
$end

$scope module uc_ula_vhd_vec_tst $end
$var wire 1 ! ALUctr [3] $end
$var wire 1 " ALUctr [2] $end
$var wire 1 # ALUctr [1] $end
$var wire 1 $ ALUctr [0] $end
$var wire 1 % ALUop [2] $end
$var wire 1 & ALUop [1] $end
$var wire 1 ' ALUop [0] $end
$var wire 1 ( funct [5] $end
$var wire 1 ) funct [4] $end
$var wire 1 * funct [3] $end
$var wire 1 + funct [2] $end
$var wire 1 , funct [1] $end
$var wire 1 - funct [0] $end

$scope module i1 $end
$var wire 1 . gnd $end
$var wire 1 / vcc $end
$var wire 1 0 unknown $end
$var wire 1 1 devoe $end
$var wire 1 2 devclrn $end
$var wire 1 3 devpor $end
$var wire 1 4 ww_devoe $end
$var wire 1 5 ww_devclrn $end
$var wire 1 6 ww_devpor $end
$var wire 1 7 ww_funct [5] $end
$var wire 1 8 ww_funct [4] $end
$var wire 1 9 ww_funct [3] $end
$var wire 1 : ww_funct [2] $end
$var wire 1 ; ww_funct [1] $end
$var wire 1 < ww_funct [0] $end
$var wire 1 = ww_ALUop [2] $end
$var wire 1 > ww_ALUop [1] $end
$var wire 1 ? ww_ALUop [0] $end
$var wire 1 @ ww_ALUctr [3] $end
$var wire 1 A ww_ALUctr [2] $end
$var wire 1 B ww_ALUctr [1] $end
$var wire 1 C ww_ALUctr [0] $end
$var wire 1 D \ALUctr[0]~output_o\ $end
$var wire 1 E \ALUctr[1]~output_o\ $end
$var wire 1 F \ALUctr[2]~output_o\ $end
$var wire 1 G \ALUctr[3]~output_o\ $end
$var wire 1 H \ALUop[2]~input_o\ $end
$var wire 1 I \ALUop[1]~input_o\ $end
$var wire 1 J \ALUctr~0_combout\ $end
$var wire 1 K \funct[0]~input_o\ $end
$var wire 1 L \funct[2]~input_o\ $end
$var wire 1 M \funct[3]~input_o\ $end
$var wire 1 N \funct[4]~input_o\ $end
$var wire 1 O \ALUctr~1_combout\ $end
$var wire 1 P \funct[5]~input_o\ $end
$var wire 1 Q \ALUctr~2_combout\ $end
$var wire 1 R \ALUop[0]~input_o\ $end
$var wire 1 S \ALUctr~3_combout\ $end
$var wire 1 T \funct[1]~input_o\ $end
$var wire 1 U \ALUctr~4_combout\ $end
$var wire 1 V \ALUctr~5_combout\ $end
$upscope $end
$upscope $end
$enddefinitions $end
#0
$dumpvars
0.
1/
x0
11
12
13
14
15
16
0D
1E
0F
0G
0H
0I
0J
0K
0L
0M
0N
1O
1P
1Q
0R
1S
0T
0U
0V
0%
0&
0'
1(
0)
0*
0+
0,
0-
17
08
09
0:
0;
0<
0=
0>
0?
0@
0A
1B
0C
0!
0"
1#
0$
$end
#10000
1-
1<
1K
0O
0Q
0S
0E
0B
0#
#20000
0-
1,
0<
1;
1T
0K
1O
1Q
1S
1U
1V
1E
1B
1F
1#
1A
1"
#30000
1-
1<
1K
0O
0Q
0S
0U
0V
0E
0B
0F
0#
0A
0"
#40000
0-
0,
1+
0<
0;
1:
1L
0T
0K
#50000
1-
1<
1K
#60000
0-
1,
0<
1;
1T
0K
#70000
1-
1<
1K
#80000
0-
0,
0+
1*
0<
0;
0:
19
1M
0L
0T
0K
#90000
1-
1<
1K
#100000
0-
1,
0<
1;
1T
0K
#110000
1-
1<
1K
#120000
0-
0,
1+
0<
0;
1:
1L
0T
0K
#130000
1-
1<
1K
#140000
0-
1,
0<
1;
1T
0K
#150000
1-
1<
1K
#160000
0-
0,
0+
0*
1)
0<
0;
0:
09
18
1N
0M
0L
0T
0K
#170000
1-
1<
1K
#180000
0-
1,
0<
1;
1T
0K
#190000
1-
1<
1K
#200000
0-
0,
1+
0<
0;
1:
1L
0T
0K
#210000
1-
1<
1K
#220000
0-
1,
0<
1;
1T
0K
#230000
1-
1<
1K
#240000
0-
0,
0+
1*
0<
0;
0:
19
1M
0L
0T
0K
#250000
1-
1<
1K
#260000
0-
1,
0<
1;
1T
0K
#270000
1-
1<
1K
#280000
0-
0,
1+
0<
0;
1:
1L
0T
0K
#290000
1-
1<
1K
#300000
0-
1,
0<
1;
1T
0K
#310000
1-
1<
1K
#320000
0-
0,
0+
0*
0)
0(
0<
0;
0:
09
08
07
0P
0N
0M
0L
0T
0K
1O
#330000
1-
1<
1K
0O
#340000
0-
1,
0<
1;
1T
0K
1O
#350000
1-
1<
1K
0O
#360000
0-
0,
1+
0<
0;
1:
1L
0T
0K
#370000
1-
1<
1K
#380000
0-
1,
0<
1;
1T
0K
#390000
1-
1<
1K
#400000
0-
0,
0+
1*
0<
0;
0:
19
1M
0L
0T
0K
#410000
1-
1<
1K
#420000
0-
1,
0<
1;
1T
0K
#430000
1-
1<
1K
#440000
0-
0,
1+
0<
0;
1:
1L
0T
0K
#450000
1-
1<
1K
#460000
0-
1,
0<
1;
1T
0K
#470000
1-
1<
1K
#480000
0-
0,
0+
0*
1)
0<
0;
0:
09
18
1N
0M
0L
0T
0K
#490000
1-
1<
1K
#500000
0-
1,
0<
1;
1T
0K
#510000
1-
1<
1K
#520000
0-
0,
1+
0<
0;
1:
1L
0T
0K
#530000
1-
1<
1K
#540000
0-
1,
0<
1;
1T
0K
#550000
1-
1<
1K
#560000
0-
0,
0+
1*
0<
0;
0:
19
1M
0L
0T
0K
#570000
1-
1<
1K
#580000
0-
1,
0<
1;
1T
0K
#590000
1-
1<
1K
#600000
0-
0,
1+
0<
0;
1:
1L
0T
0K
#610000
1-
1<
1K
#620000
0-
1,
0<
1;
1T
0K
#630000
1-
1<
1K
#640000
0-
0,
0+
0*
0)
1(
0<
0;
0:
09
08
17
1P
0N
0M
0L
0T
0K
1O
1Q
1S
1E
1B
1#
#650000
1-
1<
1K
0O
0Q
0S
0E
0B
0#
#660000
0-
1,
0<
1;
1T
0K
1O
1Q
1S
1U
1V
1E
1B
1F
1#
1A
1"
#670000
1-
1<
1K
0O
0Q
0S
0U
0V
0E
0B
0F
0#
0A
0"
#680000
0-
0,
1+
0<
0;
1:
1L
0T
0K
#690000
1-
1<
1K
#700000
0-
1,
0<
1;
1T
0K
#710000
1-
1<
1K
#720000
0-
0,
0+
1*
0<
0;
0:
19
1M
0L
0T
0K
#730000
1-
1<
1K
#740000
0-
1,
0<
1;
1T
0K
#750000
1-
1<
1K
#760000
0-
0,
1+
0<
0;
1:
1L
0T
0K
#770000
1-
1<
1K
#780000
0-
1,
0<
1;
1T
0K
#790000
1-
1<
1K
#800000
0-
0,
0+
0*
1)
0<
0;
0:
09
18
1N
0M
0L
0T
0K
#810000
1-
1<
1K
#820000
0-
1,
0<
1;
1T
0K
#830000
1-
1<
1K
#840000
0-
0,
1+
0<
0;
1:
1L
0T
0K
#850000
1-
1<
1K
#860000
0-
1,
0<
1;
1T
0K
#870000
1-
1<
1K
#880000
0-
0,
0+
1*
0<
0;
0:
19
1M
0L
0T
0K
#890000
1-
1<
1K
#900000
0-
1,
0<
1;
1T
0K
#910000
1-
1<
1K
#920000
0-
0,
1+
0<
0;
1:
1L
0T
0K
#930000
1-
1<
1K
#940000
0-
1,
0<
1;
1T
0K
#950000
1-
1<
1K
#960000
0-
0,
0+
0*
0)
0(
0<
0;
0:
09
08
07
0P
0N
0M
0L
0T
0K
1O
#970000
1-
1<
1K
0O
#980000
0-
1,
0<
1;
1T
0K
1O
#990000
1-
1<
1K
0O
